Module 11 Exercise (Analysis #3)
…
4. Tuning Using Cross-Validation and the tune_grid() function

#tune the model with previously specified cross-validation and RMSE as target metric
tree_res <- tree_wflow %>%
                tune::tune_grid(resamples = folds,
                                grid = tree_grid,
                                control = control_grid(verbose = TRUE),
                                metrics = yardstick::metric_set(rmse))

#collect metrics
tree_res %>% workflowsets::collect_metrics()

## # A tibble: 1,000 x 9
##    cost_complexity tree_depth min_n .metric .estimator  mean     n std_err
##              <dbl>      <int> <int> <chr>   <chr>      <dbl> <int>   <dbl>
##  1    0.0000000001          1     2 rmse    standard    1.19    25  0.0181
##  2    0.000000001           1     2 rmse    standard    1.19    25  0.0181
##  3    0.00000001            1     2 rmse    standard    1.19    25  0.0181
##  4    0.0000001             1     2 rmse    standard    1.19    25  0.0181
##  5    0.000001              1     2 rmse    standard    1.19    25  0.0181
##  6    0.00001               1     2 rmse    standard    1.19    25  0.0181
##  7    0.0001                1     2 rmse    standard    1.19    25  0.0181
##  8    0.001                 1     2 rmse    standard    1.19    25  0.0181
##  9    0.01                  1     2 rmse    standard    1.19    25  0.0181
## 10    0.1                   1     2 rmse    standard    1.21    25  0.0177
## # ... with 990 more rows, and 1 more variable: .config <chr>
…
#one last fit on the training data
best_lasso_fit <- best_lasso_wflow %>%
                    parsnip::fit(data = train_data)

#create a table of model fit
lasso_tibble <- best_lasso_fit %>%
                    workflowsets::extract_fit_parsnip() %>%
                    broom::tidy() %>%
                    dplyr::mutate_if(is.numeric, round, 4)
lasso_tibble

## # A tibble: 32 x 3
##    term                  estimate penalty
##    <chr>                    <dbl>   <dbl>
##  1 (Intercept)            98.7     0.0574
##  2 SwollenLymphNodes_Yes   0       0.0574
##  3 ChestCongestion_Yes     0.0332  0.0574
##  4 ChillsSweats_Yes        0.0894  0.0574
##  5 NasalCongestion_Yes    -0.140   0.0574
##  6 Sneeze_Yes             -0.391   0.0574
##  7 Fatigue_Yes             0.178   0.0574
##  8 SubjectiveFever_Yes     0.378   0.0574
##  9 Headache_Yes            0       0.0574
## 10 Weakness_1              0.178   0.0574
## # ... with 22 more rows
…
